<?xml version="1.0" encoding="UTF-8" standalone="no"?>
<!-- Created with Inkscape (http://www.inkscape.org/) -->

<svg
   xmlns:dc="http://purl.org/dc/elements/1.1/"
   xmlns:cc="http://creativecommons.org/ns#"
   xmlns:rdf="http://www.w3.org/1999/02/22-rdf-syntax-ns#"
   xmlns:svg="http://www.w3.org/2000/svg"
   xmlns="http://www.w3.org/2000/svg"
   xmlns:sodipodi="http://sodipodi.sourceforge.net/DTD/sodipodi-0.dtd"
   xmlns:inkscape="http://www.inkscape.org/namespaces/inkscape"
   width="50"
   height="79"
   viewBox="0 0 13.229166 20.902091"
   version="1.1"
   id="svg4771"
   inkscape:version="0.92.2 2405546, 2018-03-11"
   sodipodi:docname="logo.svg">
  <defs
     id="defs4765" />
  <sodipodi:namedview
     id="base"
     pagecolor="#ff3eff"
     bordercolor="#666666"
     borderopacity="1.0"
     inkscape:pageopacity="0"
     inkscape:pageshadow="2"
     inkscape:zoom="5.6"
     inkscape:cx="54.513856"
     inkscape:cy="62.083204"
     inkscape:document-units="mm"
     inkscape:current-layer="layer1"
     showgrid="false"
     units="px"
     inkscape:window-width="1600"
     inkscape:window-height="787"
     inkscape:window-x="0"
     inkscape:window-y="27"
     inkscape:window-maximized="1" />
  <metadata
     id="metadata4768">
    <rdf:RDF>
      <cc:Work
         rdf:about="">
        <dc:format>image/svg+xml</dc:format>
        <dc:type
           rdf:resource="http://purl.org/dc/dcmitype/StillImage" />
        <dc:title></dc:title>
      </cc:Work>
    </rdf:RDF>
  </metadata>
  <g
     inkscape:label="Layer 1"
     inkscape:groupmode="layer"
     id="layer1"
     transform="translate(0,-276.09783)">
    <g
       id="g4666"
       transform="matrix(0.07286241,0,0,0.07286241,-31.226147,269.41278)">
      <path
         inkscape:connector-curvature="0"
         id="path4558"
         d="m 532.84796,93.777838 c -9.75456,0 -8.42969,6.492262 -8.42969,13.085942 v 176.64648 a 61.071425,61.071425 0 0 1 17.87891,34.8711 V 174.22901 c 1.90333,-2.20922 5.81111,2.48084 7.8164,2.71875 22.56805,13.59521 42.51938,35.58532 43.87891,63.18359 1.49547,21.54841 -4.99531,42.65371 -12.30273,62.63871 24.43738,-30.28335 32.28697,-74.46651 15.29296,-110.25589 -8.70093,-20.76668 -28.27773,-33.58037 -39.25586,-52.85157 A 105.77072,105.77072 0 0 1 541.54913,97.176278 c -1.59744,-3.16088 -5.5399,-3.39844 -8.63281,-3.39844 z"
         style="fill:#ffffff;stroke-width:3.39880204" />
      <g
         id="g4569">
        <ellipse
           style="fill:#005dca;fill-opacity:1;stroke:none;stroke-width:3.93628311;stroke-miterlimit:4;stroke-dasharray:none;stroke-opacity:1"
           id="path4536"
           cx="487.47794"
           cy="320.9213"
           rx="49.914314"
           ry="47.691704" />
        <path
           inkscape:connector-curvature="0"
           id="path4538"
           d="m 448.73553,287.87364 10.87939,-6.89129 7.33489,6.89129 25.35715,1.78572 5.89285,2.5 1.42858,4.10714 -0.53572,6.60714 1.60714,3.92857 -3.21428,1.96429 -2.85714,0.17857 -4.82143,13.75 -3.39286,-2.85714 -4.82143,4.10714 -0.17857,9.46429 11.25,0.53571 4.46429,-4.28571 12.14285,0.17857 4.64286,10.53571 3.75,1.78572 0.35714,5 -2.67857,2.14285 -5.35714,0.53572 -12.5,18.39286 -14.28572,0.71428 3.92858,-18.39286 -1.25,-8.39285 h -4.28572 l -4.28571,0.53571 -3.21429,-1.78571 v -12.5 l -2.5,-4.82143 -6.42857,0.71428 -4.46429,-14.64285 -5.89285,-2.14286 -0.53572,-10.35714 3.03572,-1.25 -1.42857,-4.82143 z"
           style="fill:#00ca0d;fill-opacity:1;stroke:none;stroke-width:1px;stroke-linecap:butt;stroke-linejoin:miter;stroke-opacity:1" />
        <path
           style="fill:#00ca0d;fill-opacity:1;stroke:none;stroke-width:1.00157475;stroke-linecap:butt;stroke-linejoin:miter;stroke-miterlimit:4;stroke-dasharray:none;stroke-opacity:1"
           d="m 511.77125,277.33793 c 0.35714,0.89286 1.96428,7.85714 1.96428,7.85714 l 1.42857,8.39286 -1.42857,8.21428 v 4.82143 l 2.14286,2.5 2.32143,0.35715 6.96428,-1.42858 1.78572,1.42858 0.89286,6.25 7.32142,6.42857 -1.25,-18.03572 -15.17857,-23.21428 z"
           id="path4560"
           inkscape:connector-curvature="0" />
        <circle
           id="path4564"
           style="fill:none;fill-opacity:1;stroke:#ffffff;stroke-width:8.98015785;stroke-miterlimit:4;stroke-dasharray:none;stroke-opacity:1"
           cx="486.96341"
           cy="320.53259"
           r="50.887028" />
        <path
           style="fill:none;stroke:#ffffff;stroke-width:3.2692914;stroke-linecap:butt;stroke-linejoin:miter;stroke-miterlimit:4;stroke-dasharray:none;stroke-opacity:1"
           d="m 452.35446,289.00039 4.48255,4.10377 v 3.5355 l -2.52538,1.0102 1.26269,10.1015 6.06092,2.5254 3.78807,14.1421 c 0,0 5.48165,-1.35169 7.32362,0.2526 4.44573,3.87209 -0.92732,13.9753 3.03045,17.42511 2.60868,2.27386 8.23258,-1.97643 10.35407,0.7576 3.33612,4.29935 -2.02031,22.72839 -2.02031,22.72839 l -0.75761,4.5457"
           id="path4572"
           inkscape:connector-curvature="0"
           sodipodi:nodetypes="cccccccssscc" />
        <path
           style="fill:none;stroke:#f9f9f9;stroke-width:3.2692914;stroke-linecap:butt;stroke-linejoin:miter;stroke-miterlimit:4;stroke-dasharray:none;stroke-opacity:1"
           d="m 459.61493,280.98236 7.07107,7.071 13.88961,0.7576 h 4.79822 c 0,0 10.43612,0.76131 13.38452,4.41947 1.51383,1.87825 1.21697,6.29373 0.75762,7.19733 -1.18809,2.3371 1.24969,6.14219 -0.75762,7.8287 -0.84034,0.70603 -2.35549,-0.83945 -3.28299,-0.2526 -3.58021,2.26526 -4.54569,11.8693 -4.54569,11.8693 l -1.51523,3.283 -3.03045,-3.5355 c 0,0 -3.68323,2.31419 -4.55838,4.18107 -1.44675,3.08622 -0.49239,10.21363 -0.49239,10.21363 h 11.36422 l 3.78807,-3.7881 12.62691,-0.2525 5.05076,11.1116 3.53554,1.0102 0.50507,5.0508 -2.27284,2.0203 -6.06092,0.505 -11.11168,16.6676 v 0"
           id="path4574"
           inkscape:connector-curvature="0"
           sodipodi:nodetypes="ccccsssscccaccccccccccc" />
        <path
           style="fill:none;stroke:#ffffff;stroke-width:3.2692914;stroke-linecap:butt;stroke-linejoin:miter;stroke-miterlimit:4;stroke-dasharray:none;stroke-opacity:1"
           d="m 509.20996,273.83431 c 0,0 3.46273,7.25011 4.58684,11.08898 0.73373,2.50572 1.19624,5.1055 1.38311,7.70975 0.36596,5.10037 -3.45418,11.13987 -0.52528,15.33145 2.74438,3.92753 8.18074,-0.85229 10.91392,0.52368 2.53645,1.27693 1.0776,5.77555 2.7689,8.05669 1.14547,1.54495 3.37586,1.9628 4.67626,3.37982 1.82134,1.98468 4.15524,6.93111 4.15524,6.93111"
           id="path4578"
           inkscape:connector-curvature="0"
           sodipodi:nodetypes="cssssssc" />
      </g>
    </g>
  </g>
</svg>
